Progeny and Stability Clustering • stabilityselectr
…
Correct clusters are:

cluster 1 -> samples 1:50

cluster 2 -> samples 51:100

cluster 3 -> samples 101:150

stab_clust <- withr::with_seed(999,
  stability_cluster(progeny_data, k = 3L, iter = 500L)
)
stab_clust
#> # A tibble: 150 × 4
#>    `k=1` `k=2` `k=3` ProbK
#>    <dbl> <dbl> <dbl> <dbl>
#>  1 0.718 0.156 0.126     1
#>  2 0.684 0.172 0.144     1
#>  3 0.682 0.152 0.166     1
#>  4 0.664 0.19  0.146     1
#>  5 0.642 0.184 0.174     1
#>  6 0.7   0.154 0.146     1
#>  7 0.696 0.13  0.174     1
#>  8 0.644 0.154 0.202     1
#>  9 0.652 0.178 0.17      1
#> 10 0.682 0.154 0.164     1
#> # ℹ 140 more rows
…
