Calculate Empirical FDR Break Points — calc_emp_fdr_breaks • stabilityselectr
…
# l1-logistic
withr::with_seed(101, {
  n_feat      <- 20
  n_samples   <- 100
  x           <- matrix(rnorm(n_feat * n_samples), n_samples, n_feat)
  colnames(x) <- paste0("feat", "_", head(letters, n_feat))
  y        <- sample(1:2, n_samples, replace = TRUE)
})
stab_sel <- stability_selection(x, y, "l1-logistic", num_iter = 25,
                                num_perms = 25,
                                r_seed = 101, parallel = TRUE)
#> ✓ Using kernel: 'l1-logistic' and 1 core (serial)
calc_emp_fdr_breaks(stab_sel)
#> $fdr_data
#> # A tibble: 91 × 3
#>    MeanFPs n_selected piThresh
#>      <dbl>      <int>    <dbl>
#>  1    0.32          0     1   
#>  2    0.32          0     0.99
#>  3    0.8           0     0.98
#>  4    0.8           0     0.97
#>  5    1.6           0     0.96
#>  6    1.6           0     0.95
#>  7    2.24          2     0.94
#>  8    2.24          2     0.93
#>  9    3.68          3     0.92
#> 10    3.68          3     0.91
#> # ℹ 81 more rows
…
