Perform Stability Clustering — stability_cluster • stabilityselectr
…
    Examples

stab_clust <- withr::with_seed(999, stability_cluster(progeny_data, k = 3, iter = 500))
table(actual = rep(1:3L, each = 50L), predicted = stab_clust$ProbK)
#>       predicted
#> actual  1  2  3
#>      1 49  1  0
#>      2  0 46  4
#>      3  1  0 49

stab_clust$true_cluster <- rep(1:3L, each = 50L)

# View the stable clusters
stab_clust
#> # A tibble: 150 × 5
#>    `k=1` `k=2` `k=3` ProbK true_cluster
#>    <dbl> <dbl> <dbl> <dbl>        <int>
#>  1 0.718 0.156 0.126     1            1
#>  2 0.684 0.172 0.144     1            1
#>  3 0.682 0.152 0.166     1            1
#>  4 0.664 0.19  0.146     1            1
#>  5 0.642 0.184 0.174     1            1
#>  6 0.7   0.154 0.146     1            1
#>  7 0.696 0.13  0.174     1            1
#>  8 0.644 0.154 0.202     1            1
#>  9 0.652 0.178 0.17      1            1
#> 10 0.682 0.154 0.164     1            1
#> # ℹ 140 more rows
…
