…
ss <- stability_selection(x, y, n_iter = 25, n_perm = 50,
                          r_seed = 101, parallel = TRUE)
#> ✓ Using kernel: 'binomial' and 1 core (serial)
#> ✓ Stablity path run time: 0.105s
#> ✓ Perm path run time: 3.505s

calc_emp_fdr(ss, seq(0.5, 0.9, 0.1))
#> thresh_0.5 thresh_0.6 thresh_0.7 thresh_0.8 thresh_0.9 
#>      20.00      19.74      17.22       9.78       2.78 

# calculate the FDR break points
calc_emp_fdr_breaks(ss)
#> $fdr_data
#> # A tibble: 91 × 3
#>    MeanFPs n_selected piThresh
#>      <dbl>      <int>    <dbl>
#>  1    0.16          1     1   
#>  2    0.16          1     0.99
#>  3    0.42          2     0.98
#>  4    0.42          2     0.97
#>  5    0.86          2     0.96
#>  6    0.86          2     0.95
#>  7    1.5           3     0.94
#>  8    1.5           3     0.93
#>  9    2.12          3     0.92
#> 10    2.12          3     0.91
#> # ℹ 81 more rows
…
