Perform Stability Clustering — stability_cluster • stabilityselectr
…
    Author

    Stu Field

    Examples

stab_clust <- stability_cluster(progeny_data, k = 3L, n_iter = 750L)

stab_clust$true_cluster <- rep(1:3L, each = 50L)

# View stable clusters
stab_clust
#> # A tibble: 150 × 5
#>    `k=1` `k=2` `k=3` prob_k true_cluster
#>    <dbl> <dbl> <dbl>  <int>        <int>
#>  1 0.68  0.159 0.161      1            1
#>  2 0.669 0.16  0.171      1            1
#>  3 0.657 0.172 0.171      1            1
#>  4 0.675 0.169 0.156      1            1
#>  5 0.647 0.168 0.185      1            1
#>  6 0.663 0.185 0.152      1            1
#>  7 0.673 0.175 0.152      1            1
#>  8 0.653 0.188 0.159      1            1
#>  9 0.665 0.177 0.157      1            1
#> 10 0.66  0.184 0.156      1            1
#> # ℹ 140 more rows
…
